\relax 
\providecommand\HyperFirstAtBeginDocument{\AtBeginDocument}
\HyperFirstAtBeginDocument{\ifx\hyper@anchor\@undefined
\global\let\oldcontentsline\contentsline
\gdef\contentsline#1#2#3#4{\oldcontentsline{#1}{#2}{#3}}
\global\let\oldnewlabel\newlabel
\gdef\newlabel#1#2{\newlabelxx{#1}#2}
\gdef\newlabelxx#1#2#3#4#5#6{\oldnewlabel{#1}{{#2}{#3}}}
\AtEndDocument{\ifx\hyper@anchor\@undefined
\let\contentsline\oldcontentsline
\let\newlabel\oldnewlabel
\fi}
\fi}
\global\let\hyper@last\relax 
\gdef\HyperFirstAtBeginDocument#1{#1}
\providecommand\HyField@AuxAddToFields[1]{}
\bibstyle{plos2009}
\citation{cormack}
\citation{awad}
\citation{trec07}
\citation{NLTK}
\citation{nlp}
\@writefile{toc}{\contentsline {section}{\numberline {1}Introduction}{1}{section.1}}
\@writefile{toc}{\contentsline {section}{\numberline {2}Email Dataset and Representation}{1}{section.2}}
\citation{scikit}
\citation{AIMA}
\citation{scikit}
\citation{MLAPA}
\citation{AIMA}
\citation{MLAPA}
\citation{MLAPA}
\citation{shapire}
\newlabel{chi2}{{1}{2}{Email Dataset and Representation\relax }{equation.2.1}{}}
\@writefile{toc}{\contentsline {section}{\numberline {3}Classification Methods}{2}{section.3}}
\@writefile{toc}{\contentsline {subsection}{\numberline {3.1}Algorithms}{2}{subsection.3.1}}
\citation{MLAPA}
\bibdata{ref}
\bibcite{cormack}{1}
\bibcite{awad}{2}
\bibcite{trec07}{3}
\bibcite{NLTK}{4}
\bibcite{nlp}{5}
\bibcite{scikit}{6}
\bibcite{AIMA}{7}
\bibcite{MLAPA}{8}
\bibcite{shapire}{9}
\@writefile{toc}{\contentsline {subsection}{\numberline {3.2}Evaluation Metrics}{3}{subsection.3.2}}
\@writefile{toc}{\contentsline {section}{\numberline {4}Results}{3}{section.4}}
\newlabel{results}{{4}{3}{Results\relax }{section.4}{}}
\@writefile{lot}{\contentsline {table}{\numberline {1}{\ignorespaces {\bf  Results from ten classifiers on 20 Newsgroups data.} For each classifier, we report precision, recall, $F_1$-scores, and wall clock time in seconds for the one-versus-rest classification task with 10-fold cross validation.}}{3}{table.1}}
\newlabel{tab:classifiers}{{1}{3}{{\bf Results from ten classifiers on 20 Newsgroups data.} For each classifier, we report precision, recall, $F_1$-scores, and wall clock time in seconds for the one-versus-rest classification task with 10-fold cross validation}{table.1}{}}
\@writefile{toc}{\contentsline {section}{\numberline {5}Discussion and Conclusion}{3}{section.5}}
