This is BibTeX, Version 0.99d (TeX Live 2011)
Capacity: max_strings=35307, hash_size=35307, hash_prime=30011
The top-level auxiliary file: EmailClassification.aux
The style file: plos2009.bst
Database file #1: ref.bib
Reallocated singl_function (elt_size=4) to 100 items from 50.
Warning--empty pages in trec07
You've used 9 entries,
            2441 wiz_defined-function locations,
            588 strings with 5790 characters,
and the built_in function-call counts, 6032 in all, are:
= -- 523
> -- 84
< -- 0
+ -- 42
- -- 21
* -- 466
:= -- 694
add.period$ -- 18
call.type$ -- 9
change.case$ -- 6
chr.to.int$ -- 0
cite$ -- 19
duplicate$ -- 634
empty$ -- 677
format.name$ -- 27
if$ -- 1354
int.to.chr$ -- 0
int.to.str$ -- 9
missing$ -- 94
newline$ -- 60
num.names$ -- 9
pop$ -- 168
preamble$ -- 1
purify$ -- 0
quote$ -- 0
skip$ -- 72
stack$ -- 0
substring$ -- 740
swap$ -- 151
text.length$ -- 0
text.prefix$ -- 0
top$ -- 0
type$ -- 0
warning$ -- 1
while$ -- 36
width$ -- 10
write$ -- 107
(There was 1 warning)
